<?xml version="1.0" encoding="UTF-8" standalone="no"?>
<svg
   viewBox="0 0 32 32"
   id="svg"
   version="1.1"
   inkscape:version="1.2.2 (b0a8486541, 2022-12-01)"
   width="32"
   height="32"
   sodipodi:docname="printer.svg"
   xmlns:inkscape="http://www.inkscape.org/namespaces/inkscape"
   xmlns:sodipodi="http://sodipodi.sourceforge.net/DTD/sodipodi-0.dtd"
   xmlns:xlink="http://www.w3.org/1999/xlink"
   xmlns="http://www.w3.org/2000/svg"
   xmlns:svg="http://www.w3.org/2000/svg"
   xmlns:rdf="http://www.w3.org/1999/02/22-rdf-syntax-ns#"
   xmlns:cc="http://creativecommons.org/ns#"
   xmlns:dc="http://purl.org/dc/elements/1.1/">
  <defs
     id="defs81">
    <linearGradient
       id="linearGradient3902"
       x1="64"
       y1="118"
       x2="64"
       y2="6"
       gradientUnits="userSpaceOnUse"
       gradientTransform="matrix(0.06805294,0,0,0.06805292,44.566867,81.711604)">
      <stop
         stop-color="#FD5B00"
         id="stop3896"
         style="stop-color:#000000;stop-opacity:1" />
      <stop
         offset="0.59508252"
         stop-color="#AB18A8"
         id="stop3898" />
      <stop
         offset="1"
         stop-color="#8E00E4"
         id="stop3900" />
    </linearGradient>
    <linearGradient
       id="linearGradient3122"
       x1="64"
       y1="118"
       x2="64"
       y2="6"
       gradientUnits="userSpaceOnUse"
       gradientTransform="matrix(0.06805294,0,0,0.06805292,44.566867,81.711604)">
      <stop
         stop-color="#FD5B00"
         id="stop3116" />
      <stop
         offset="0.59508252"
         stop-color="#AB18A8"
         id="stop3118" />
      <stop
         offset="1"
         stop-color="#8E00E4"
         id="stop3120" />
    </linearGradient>
    <linearGradient
       id="linearGradient2836"
       inkscape:swatch="solid">
      <stop
         style="stop-color:#000000;stop-opacity:1;"
         offset="0"
         id="stop2834" />
    </linearGradient>
    <style
       id="current-color-scheme"
       type="text/css">
      .ColorScheme-Text {
        color:#7B7C7E;
      }
      .ColorScheme-Background{
        color:#EFF0F1;
      }
      .ColorScheme-Highlight{
        color:#3DAEE6;
      }
      .ColorScheme-ViewText {
        color:#7B7C7E;
      }
      .ColorScheme-ViewBackground{
        color:#FCFCFC;
      }
      .ColorScheme-ViewHover {
        color:#3DAEE6;
      }
      .ColorScheme-ViewFocus{
        color:#1E92FF;
      }
      .ColorScheme-ButtonText {
        color:#7B7C7E;
      }
      .ColorScheme-ButtonBackground{
        color:#EFF0F1;
      }
      .ColorScheme-ButtonHover {
        color:#3DAEE6;
      }
      .ColorScheme-ButtonFocus{
        color:#1E92FF;
      }
</style>
    <style
       type="text/css"
       id="style3">
      .ColorScheme-Text {
        color:#31363b;
      }
      .ColorScheme-Background {
        color:#eff0f1;
      }
      .ColorScheme-Highlight {
        color:#3daee9;
      }
      .ColorScheme-ViewText {
        color:#31363b;
      }
      .ColorScheme-ViewBackground {
        color:#fcfcfc;
      }
      .ColorScheme-ViewHover {
        color:#93cee9;
      }
      .ColorScheme-ViewFocus{
        color:#3daee9;
      }
      .ColorScheme-ButtonText {
        color:#31363b;
      }
      .ColorScheme-ButtonBackground {
        color:#eff0f1;
      }
      .ColorScheme-ButtonHover {
        color:#93cee9;
      }
      .ColorScheme-ButtonFocus{
        color:#3daee9;
      }
      </style>
    <linearGradient
       id="paint0_linear_640_125"
       x1="-1106.7561"
       y1="-3058.6833"
       x2="-1105.4204"
       y2="-3705.825"
       gradientUnits="userSpaceOnUse"
       gradientTransform="matrix(0.03024578,0,0,0.03024576,44.904194,113.37433)"
       xlink:href="#paint0_linear_640_125-6">
      <stop
         stop-color="#FD5B00"
         id="stop4" />
      <stop
         offset="0.411458"
         stop-color="#AB18A8"
         id="stop6" />
      <stop
         offset="1"
         stop-color="#8E00E4"
         id="stop8" />
    </linearGradient>
    <linearGradient
       id="paint0_linear_640_125-6"
       x1="64"
       y1="118"
       x2="64"
       y2="6"
       gradientUnits="userSpaceOnUse"
       gradientTransform="matrix(0.06805294,0,0,0.06805292,44.566867,81.711604)">
      <stop
         stop-color="#FD5B00"
         id="stop4-7" />
      <stop
         offset="0.411458"
         stop-color="#AB18A8"
         id="stop6-5" />
      <stop
         offset="1"
         stop-color="#8E00E4"
         id="stop8-3" />
    </linearGradient>
    <linearGradient
       inkscape:collect="always"
       xlink:href="#linearGradient3122"
       id="linearGradient2854"
       x1="16.028601"
       y1="30.5779"
       x2="15.896044"
       y2="1.4755114"
       gradientUnits="userSpaceOnUse" />
    <linearGradient
       inkscape:collect="always"
       xlink:href="#linearGradient3122"
       id="linearGradient3130"
       x1="16.028601"
       y1="30.5779"
       x2="15.896044"
       y2="1.4755114"
       gradientUnits="userSpaceOnUse" />
    <linearGradient
       inkscape:collect="always"
       xlink:href="#paint0_linear_640_125-6"
       id="linearGradient3894"
       x1="11.429492"
       y1="20.862125"
       x2="11.469892"
       y2="1.2888379"
       gradientUnits="userSpaceOnUse" />
  </defs>
  <metadata
     id="metadata34">
    <rdf:RDF>
      <cc:Work
         rdf:about="">
        <dc:format>image/svg+xml</dc:format>
        <dc:type
           rdf:resource="http://purl.org/dc/dcmitype/StillImage" />
      </cc:Work>
    </rdf:RDF>
  </metadata>
  <sodipodi:namedview
     pagecolor="#ffffff"
     bordercolor="#666666"
     borderopacity="1"
     objecttolerance="10"
     gridtolerance="10"
     guidetolerance="10"
     inkscape:pageopacity="0"
     inkscape:pageshadow="2"
     inkscape:window-width="3840"
     inkscape:window-height="2104"
     id="namedview32"
     showgrid="true"
     inkscape:zoom="15.531371"
     inkscape:cx="25.593362"
     inkscape:cy="-5.3440228"
     inkscape:window-x="0"
     inkscape:window-y="0"
     inkscape:window-maximized="1"
     inkscape:current-layer="svg"
     borderlayer="true"
     showguides="true"
     inkscape:guide-bbox="true"
     inkscape:snap-bbox="true"
     inkscape:showpageshadow="false"
     fit-margin-top="0"
     fit-margin-left="0"
     fit-margin-right="0"
     fit-margin-bottom="0"
     inkscape:pagecheckerboard="1"
     inkscape:deskcolor="#6d6d6d" />
  <g
     style="clip-rule:evenodd;fill-rule:evenodd;stroke-linejoin:round;stroke-miterlimit:1.41420996"
     id="printer">
    <rect
       y="0"
       x="0"
       height="32"
       width="32"
       id="rect817"
       style="fill:#ffffff;fill-opacity:0;stroke-width:1.01498103" />
    <path
       d="m 5.6978901,15.356564 c -0.472722,0 -0.855966,0.383243 -0.855966,0.855991 0,0.472722 0.383244,0.855965 0.855966,0.855965 0.472747,0 0.855991,-0.383243 0.855991,-0.855965 0,-0.472748 -0.383244,-0.855991 -0.855991,-0.855991 z m 3.423914,0 c -0.472722,0 -0.855966,0.383243 -0.855966,0.855991 0,0.472722 0.383244,0.855965 0.855966,0.855965 0.472747,0 0.855991,-0.383243 0.855991,-0.855965 0,-0.472748 -0.383244,-0.855991 -0.855991,-0.855991 z M 29.779491,10.220695 H 25.442534 V 5.8266602 c 0,-0.286147 -0.142956,-0.553461 -0.38126,-0.7122 l -5.13587,-3.423931 c -0.140609,-0.09376 -0.305817,-0.143747 -0.474783,-0.143747 H 7.4098731 c -0.472748,0 -0.855992,0.383249 -0.855992,0.855979 v 7.8179338 h -4.279904 c -0.472717,0 -0.855966,0.383243 -0.855966,0.855965 v 11.983721 c 0,0.472722 0.383249,0.855965 0.855966,0.855965 h 4.279904 v 5.991913 c 0,0.472695 0.383244,0.855912 0.855992,0.855912 H 24.586491 c 0.472722,0 0.856043,-0.383217 0.856043,-0.855912 v -5.991913 h 4.336957 c 0.472697,0 0.855914,-0.383243 0.855914,-0.855965 V 11.07666 c 0,-0.472722 -0.383217,-0.855965 -0.855914,-0.855965 z m -9.472905,-6.2185038 1.452783,0.968504 H 20.306586 Z M 8.2658381,3.2587392 H 18.594656 v 2.567921 c 0,0.472748 0.383244,0.855992 0.855965,0.855992 H 23.7305 V 11.07666 c 0,0.471991 -0.384001,0.855991 -0.855965,0.855991 H 9.1218041 c -0.471966,0 -0.855966,-0.384 -0.855966,-0.855991 z M 23.7305,29.052346 H 8.2658381 v -7.703948 c 0,-0.471965 0.384,-0.855965 0.855966,-0.855965 H 22.874535 c 0.471964,0 0.855965,0.384 0.855965,0.855965 z m 5.193078,-6.847956 h -3.481044 v -0.855992 c 0,-1.415921 -1.152104,-2.567921 -2.567999,-2.567921 H 9.1218041 c -1.415922,0 -2.567923,1.152 -2.567923,2.567921 V 22.20439 H 3.1299681 V 11.932651 h 3.571148 c 0.353347,0.996287 1.304766,1.711956 2.420688,1.711956 H 22.874535 c 1.115922,0 2.067365,-0.715669 2.420713,-1.711956 h 3.62833 z m -7.761,0 H 10.833786 c -0.472748,0 -0.8559909,0.383243 -0.8559909,0.855991 0,0.472722 0.3832429,0.855965 0.8559909,0.855965 h 10.328792 c 0.472722,0 0.855991,-0.383243 0.855991,-0.855965 0,-0.472748 -0.383269,-0.855991 -0.855991,-0.855991 z m 0,3.423912 H 10.833786 c -0.472748,0 -0.8559909,0.383244 -0.8559909,0.856044 0,0.472695 0.3832429,0.855913 0.8559909,0.855913 h 10.328792 c 0.472722,0 0.855991,-0.383218 0.855991,-0.855913 0,-0.4728 -0.383269,-0.856044 -0.855991,-0.856044 z"
       fill="url(#paint0_linear_640_125)"
       stroke="url(#paint1_linear_640_125)"
       stroke-width="0.782611"
       id="path2-5"
       style="fill:url(#linearGradient2854);stroke:url(#linearGradient3130);fill-opacity:1;stroke-opacity:1;stroke-width:1.2;stroke-dasharray:none" />
  </g>
  <g
     style="clip-rule:evenodd;fill-rule:evenodd;stroke-linejoin:round;stroke-miterlimit:1.41420996"
     id="22-22-printer"
     transform="translate(32,10)">
    <rect
       style="fill:#ff0000;fill-opacity:0;stroke-width:0.87534779"
       y="0"
       x="0"
       height="22"
       width="22"
       id="rect12" />
    <path
       d="m 4.2418816,10.671633 c -0.315146,0 -0.570642,0.255496 -0.570642,0.570661 0,0.315148 0.255496,0.570646 0.570642,0.570646 0.315166,0 0.570661,-0.255498 0.570661,-0.570646 0,-0.315165 -0.255495,-0.570661 -0.570661,-0.570661 z m 2.28261,0 c -0.315148,0 -0.570644,0.255496 -0.570644,0.570661 0,0.315148 0.255496,0.570646 0.570644,0.570646 0.315166,0 0.570661,-0.255498 0.570661,-0.570646 0,-0.315165 -0.255495,-0.570661 -0.570661,-0.570661 z M 20.296287,7.2477185 h -2.891305 v -2.929356 c 0,-0.190765 -0.09531,-0.368973 -0.254174,-0.4748 l -3.423914,-2.282621 c -0.09373,-0.06251 -0.203877,-0.09582 -0.316521,-0.09582 H 5.3832056 c -0.315167,0 -0.570663,0.255498 -0.570663,0.570652 v 5.211956 h -2.853269 c -0.315144,0 -0.570644,0.255495 -0.570644,0.570644 v 7.9891505 c 0,0.315149 0.2555,0.570644 0.570644,0.570644 h 2.853269 v 3.994609 c 0,0.315131 0.255496,0.570608 0.570663,0.570608 H 16.834286 c 0.315149,0 0.570696,-0.255477 0.570696,-0.570608 v -3.994609 h 2.891305 c 0.31513,0 0.570607,-0.255495 0.570607,-0.570644 V 7.8183725 c 0,-0.315149 -0.255477,-0.570644 -0.570607,-0.570644 z m -6.315271,-4.145669 0.968522,0.645669 H 13.981016 Z M 5.9538476,2.6064145 h 6.8858804 v 1.711948 c 0,0.315166 0.255498,0.570661 0.570645,0.570661 h 2.853253 v 2.929339 c 0,0.314662 -0.256,0.570661 -0.570644,0.570661 H 6.5244916 c -0.314644,0 -0.570644,-0.255999 -0.570644,-0.570661 z M 16.263626,19.802158 H 5.9538476 v -5.135967 c 0,-0.314644 0.256,-0.570643 0.570644,-0.570643 h 9.1684904 c 0.314644,0 0.570644,0.255999 0.570644,0.570643 z m 3.462052,-4.565306 h -2.320696 v -0.570661 c 0,-0.943947 -0.768069,-1.711947 -1.712,-1.711947 H 6.5244916 c -0.943948,0 -1.711949,0.768 -1.711949,1.711947 v 0.570661 H 2.5299346 V 8.3890235 h 2.380764 c 0.235566,0.664193 0.869845,1.1413051 1.613793,1.1413051 h 9.1684904 c 0.743946,0 1.378244,-0.4771121 1.61381,-1.1413051 h 2.418886 z m -5.174,0 H 7.6658136 c -0.315165,0 -0.570661,0.255495 -0.570661,0.570661 0,0.315149 0.255496,0.570644 0.570661,0.570644 h 6.8858644 c 0.315147,0 0.57066,-0.255495 0.57066,-0.570644 0,-0.315166 -0.255513,-0.570661 -0.57066,-0.570661 z m 0,2.282609 H 7.6658136 c -0.315165,0 -0.570661,0.255496 -0.570661,0.570697 0,0.31513 0.255496,0.570608 0.570661,0.570608 h 6.8858644 c 0.315147,0 0.57066,-0.255478 0.57066,-0.570608 0,-0.315201 -0.255513,-0.570697 -0.57066,-0.570697 z"
       fill="url(#paint0_linear_640_125)"
       stroke="url(#paint1_linear_640_125)"
       stroke-width="0.521737"
       id="path2-3"
       style="clip-rule:evenodd;fill:url(#paint0_linear_640_125);fill-rule:evenodd;stroke:url(#linearGradient3894);stroke-linejoin:round;stroke-miterlimit:1.41421;stroke-opacity:1;fill-opacity:1;stroke-width:0.8;stroke-dasharray:none" />
  </g>
</svg>
